20160401141703
20160402152202
20160403151702
20160404150702
20160405145202
20160406152705
20160407151704
20160409151702
20160410145202
20160411141202
20160412150704
20160413152703
20160414144202
20160415144202
20160417150702
20160418144202
20160419150703
20160420144202
20160421144702
20160422145203
20160423145203
20160424140702
20161103150048
20161104141711
20161105165148
20161106154700
20161107151151
20161108162806
20161109151247
20161110154402
20161111153715
20161112151402
20161113152619
20161114153800
20161115145223
20161116150438
20161117155352
20161118153902
20161119150031
20161120142315
20161121160627
20161122161056
20161123144307
20161124160809
20161125154949
20161126145659
20161127150422
20161128153241
20161129154313
20161130151149
20161201144629
20161202154849
20161203151028
20161204132634
20161205154253
20161206152647
20161207152520
20161208144600
20161209150640
20161210134055
20161211143750
20161212141825
20161213150026
20161214144347
20161215143554
20161216150734
20161217143717
20161218145433
20161220152550
20161221151638
20161222150434
20161223145441
20161224153645
20161225153102
20161226145353
20161227151409
20161228144514
20161229151437
20161230151720
20161231150206
20170101145954
20170102152904
20170103144637
20170104142827
20170105144908
20170106144310
20170107152258
20170108150845
20170109151850
20170110142528
20170111151353
20170112161433
20170113155325
20170114151505
20170115152805
20170116152448
20170117154937
20170118150315
20170119151207
20170120150947
20170121152856
20170122151902
20170123150031
20170124151138
20170125144733
20170126153335
20170127160132
20170128151915
20170129150643
20170130152319
20170131150520
20170201151030
20170202155340
20170203155546
20170204154150
20170205151942
20170206152530
20170207152735
20170208152027
20170209150812
20170210152717
20170211155808
20170212152905
20170213151052
20170214155226
20170215151521
20170216145819
20170217152501
20170218150331
20170219150458
20170220151958
20170221145815
20170222150142
20170223150622
20170224144540
20170225145648
20170226145201
20170227161122
20170228151725
20170301145601
20170302154150
20170303154629
20170304160015
20170305151709
20170306155029
20170307152714
20170308160851
20170309152326
20170310152032
20170311143406
20170312151220
20170313150813
20170314150134
20170315160314
20170316144037
20170317150725
20170318145657
20170319150023
20170320152336
20170321143848
20170322151108
20170323152840
20170324154804
20170325152824
20170326145433
20170327141701
20170328130505
20170329135758
20170330142016
20170331145842
20170401145636
20170402140035
20170403141106
20170404141852
20170405142003
20170406142205
20170407133748
20170408140057
20170409134605
20170410134506
20170411135311
20170412140114
20170413134004
20170414142037
20170415140527
20170416140814
20170417134826
20170418135649
20170419140052
20170420134740
20170423141003
20170424141806
20170425143140
20170426151403
20170427135650
20170428140414
20170429141405
20170430134944
20170501150648
20170502135622
20170503142909
20170504135305
20170505142606
20170506135004
20170507135914
20170508143148
20170509141306
20170510142127
20170511141106
20170512151928
20170513152600
20170514144321
20170515134452
20170516132557
20170517141626
20170518142416
20170519134425
20170520131715
20170521131657
20170522145540
20170523140122
20170524135208
20170525140523
20170526142210
20170527135904
20170528132142
20170529140431
20170530141711
20170531152800
20170601135001
20170602135251
20170603142204
20170604134347
20170605125048
20170606143629
20170607133218
20170608135624
20170609141157
20170610135243
20170611133147
20170612154530
20170613135448
20170614134304
20171102161426
20171103142717
20171104154627
20171105153936
20171106164041
20171107161059
20171108145415
20171109150502
20171110154253
20171111155335
20171112151815
20171113164820
20171114151726
20171115143743
20171116150053
20171117150748
20171118151238
20171119145301
20171120145515
20171121145841
20171122142047
20171123153803
20171124151410
20171125142915
20171126142403
20171127145524
20171128152027
20171129153659
20171130152936
20171201160019
20171202153525
20171203145558
20171204153519
20171205144926
20171206150609
20171207153557
20171208152400
20171209154620
20171210155826
20171211150335
20171212165558
20171213161136
20171214155332
20171215161713
20171216152054
20171217152106
20171218155717
20171219151153
20171220152819
20171221150830
20171222152026
20171223145733
20171224150708
20171225154028
20171226154447
20171227155249
20171228153828
20171229153751
20171230160023
20171231154310
20180101164129
20180102161945
20180103155823
20180104160744
20180105160243
20180106155742
20180107161827
20180108161305
20180109154928
20180110151954
20180111153533
20180112150628
20180113152909
20180114145729
20180115153117
20180116155701
20180117153518
20180118151808
20180120160145
20180121160353
20180122154401
20180123152644
20180124152019
20180125150426
20180126152536
20180127150921
20180128150047
20180129151255
20180130150231
20180131150708
20180201151822
20180202154324
20180203154005
20180204150137
20180205153338
20180206161917
20180207152217
20180208150547
20180209152923
20180210150602
20180211150107
20180212145251
20180213152842
20180214154519
20180215154526
20180216155213
20180217154915
20180218152047
20180219151507
20180220154241
20180221152937
20180222152054
20180223160311
20180224150719
20180225150124
20180226152242
20180227154856
20180228153113
20180301154255
20180302153830
20180303152148
20180304151429
20180305151951
20180306154340
20180307154828
20180308151246
20180309151330
20180310160247
20180311151816
20180312151309
20180313152026
20180314155829
20180315151928
20180316152929
20180317154848
20180318151028
20180319154901
20180320151805
20180321150317
20180322154929
20180323153717
20180324151134
20180325140937
20180326142710
20180327135554
20180328135221
20180329142102
20180330142643
20180331141132
20180401141038
20180402140445
20180403143309
20180404144609
20180405144441
20180406134939
20180407145931
20180408144708
20180409142558
20180410144411
20180411142924
20180412142433
20180413144205
20180414140907
20180415141827
20180417134841
20180418143535
20180419141547
20180420142532
20180421140634
20180422135524
20180423133416
20180424133236
20180425140135
20180426135211
20180427142908
20180428141352
20180429135443
20180430142233
20180501144158
20180502134850
20180503141159
20180504134755
20180505134803
20180506134724
20180507140358
20180508132740
20180509140325
20180510135339
20180511140757
20180512135308
20180513134136
20180514140136
20180515155039
20180516135235
20180517142158
20180518141935
20180519134250
20180520134329
20180521130416
20180522143537
20180523132243
20180524145021
20180525144532
20180526132521
20180527130751
20180528135129
20180529135038
20180530135836
20180531130325
20180601135536
20180602140152
20180603133352
20180604133337
20180605140343
20180606131711
20180607141118
20180608134823
20180609131547
20180610135706
20180611135001
20180612143134
20181029144014
20181030154420
20181031151728
20181101145804
20181102151426
20181103151402
20181104132738
20181105152757
20181106150615
20181107151925
20181108141641
20181109151734
20181110145802
20181111145605
20181112152904
20181113150241
20181114145918
20181115145332
20181116151617
20181117144814
20181118150330
20181119150857
20181120152702
20181121151240
20181122131257
20181123152131
20181124150909
20181125144919
20181127155356
20181128140651
20181129151310
20181130144740
20181201151457
20181202152903
20181203152826
20181204153112
20181205145931
20181206152040
20181207152832
20181208153338
20181209152925
20181210151506
20181211150721
20181212152034
20181214145745
20181215172118
20181216153754
20181217154143
20181218160851
20181219153828
20181220152259
20181221150805
20181222151237
20181223153243
20181224150855
20181225150356
20181226145414
20181227145057
20181228145248
20181229152022
20181230145522
20181231145523
20190101151352
20190102152638
20190103150704
20190104145900
20190105150354
20190106150230
20190107151815
20190108150712
20190109153436
20190110145831
20190111153852
20190112151506
20190113154416
20190114152105
20190115155319
20190116151231
20190117150602
20190118151909
20190119150037
20190120150109
20190121150732
20190122150150
20190123153905
20190124150454
20190125145827
20190126152847
20190127152816
20190128154626
20190129161827
20190130152626
20190131151406
20190201152033
20190202150631
20190203150648
20190204151859
20190205145532
20190206152345
20190207145449
20190208150458
20190209151908
20190210152154
20190211150711
20190212151707
20190213151612
20190214150727
20190215145635
20190216151335
20190217151304
20190218150044
20190219150536
20190220150331
20190221151602
20190222145754
20190223151007
20190224151819
20190225145410
20190226145433
20190227150056
20190228145407
20190301151832
20190302150618
20190303150243
20190304152415
20190305151617
20190306150723
20190307151341
20190308153314
20190309152426
20190310151407
20190311153751
20190312152428
20190313153751
20190314150510
20190315161039
20190316153221
20190317152934
20190318151040
20190320151149
20190322151023
20190323152320
20190324150758
20190325152939
20190326152117
20190327152710
20190328135906
20190329150341
20190330151725
20190331140828
20190401141003
20190402143721
20190403143018
20190404143331
20190405143251
20190406141609
20190407140924
20190408134724
20190409142505
20190410140221
20190411142623
20190412143318
20190413141906
20190414141628
20190415142126
20190416143428
20190417140630
20190418140845
20190419140252
20190420142157
20190421141127
20190422141547
20190423143413
20190424151153
20190425143046
20190426141713
20190427143338
20190429141947
20190430140732
20190501140136
20190502140028
20190503143046
20190504141413
20190505140107
20190506140527
20190507143512
20190508133811
20190509132306
20190510142124
20190511135706
20190512140057
20190513133147
20190514144734
20190515140333
20190516140353
20190517144001
20190518140159
20190519140220
20190520140224
20190521141022
20190522140334
20190523140215
20190524142147
20190525134420
20190526135406
20190527140000
20190528142843
20190529140055
20190530135125
20190531134217
20190601142357
20190602120543
20190603120540
20190604144640
20190605140009
20190606135739
20190607124105
20190608135133
20190609140111
20190610140508
20190611135507
20190612142647
20191030150930
20191031144052
20191101150716
20191102145459
20191103142648
20191104151258
20191105144313
20191106144944
20191107150014
20191108170809
20191109152508
20191110151459
20191111144915
20191112151139
20191113145052
20191114151416
20191115151128
20191116150544
20191117150727
20191118151406
20191119151819
20191120142249
20191121145633
20191122150916
20191123150928
20191124153820
20191125145731
20191126160337
20191127143741
20191128145502
20191129151755
20191130154940
20191201152157
20191202150843
20191203152942
20191204151143
20191205140507
20191206153108
20191207145530
20191208150323
20191209154356
20191210151656
20191211142914
20191212145523
20191213151847
20191214153154
20191215150542
20191216151558
20191217150432
20191218151256
20191219150441
20191220151804
20191221151435
20191222150724
20191223153201
20191224151627
20191225145901
20191226152310
20191227151030
20191228151218
20191229150313
20191230150803
20191231151758
20200101145701
20200102150538
20200103150602
20200104150145
20200105150940
20200106150421
20200107145450
20200108150038
20200109150821
20200110144708
20200111145906
20200112144825
20200113150226
20200114150716
20200115144533
20200116151348
20200117143802
20200118150737
20200119150233
20200120150748
20200121150925
20200122152844
20200123151439
20200124151417
20200125151217
20200126153658
20200127152936
20200128153913
20200129151939
20200130151308
20200131150324
20200201151908
20200202154140
20200203153126
20200204154915
20200205152536
20200206152215
20200207151834
20200208150538
20200209151605
20200210150056
20200211152904
20200212144219
20200213153654
20200215150306
20200216150006
20200217154501
20200218150406
20200219145709
20200220142924
20200221144232
20200222150245
20200223150446
20200224151356
20200225150549
20200226152812
20200227152002
20200228145842
20200229153047
20200301152958
20200302150902
20200303152823
20200304152927
20200305152818
20200306153657
20200307151225
20200308145707
20200309150329
20200310151151
20200311152134
20200312153051
20200313151806
20200314150230
20200315152031
20200316152324
20200317150642
20200318150126
20200319151122
20200320150408
20200321150654
20200322150053
20200323145934
20200324150505
20200325150204
20200515134454
20200516140426
20200517135113
20200518140425
20200519140943
20200520140624
20200521140955
20200522140948
20200523140344
20200524140356
20200525141442
20200526142420
20200527141701
20200528140241
20200529142749
20200530140452
20200531140711
20200601141443
20200602143450
20200603140341
20200604140631
20200605142311
20200606135943
20200607140715
20200608140923
20200609134808
20200610140932
20201102150352
20201103145506
20201104140756
20201105150007
20201106143017
20201107150103
20201108144308
20201109150927
20201110150505
20201111145941
20201112145550
20201113151248
20201114143814
20201115145510
20201116143358
20201117145724
20201118144915
20201119145335
20201120150532
20201121144847
20201122150430
20201123143708
20201124151236
20201125144052
20201126155510
20201127151355
20201128151552
20201129145758
20201130144707
20201201150023
20201202145605
20201203150638
20201204151817
20201205154643
20201206154612
20201207151631
20201208150645
20201209150832
20201210150615
20201214154155
20201215150025
20201217145423
20201218144622
20201219145040
20201220140809
20201221150822
20201222150309
20201223151506
20201224152531
20201225151707
20201226083912
20201227150527
20201228151642
20201229151203
20201230150932
20201231151244
20210101151421
20210102153545
20210103145220
20210104150544
20210105150317
20210106150318
20210107144733
20210108145816
20210109150648
20210110151653
20210111150349
20210112151207
20210115150053
20210116150713
20210117151515
20210118150105
20210119150627
20210120151806
20210121151129
20210122151140
20210123151253
20210124145100
20210125150436
20210126153031
20210127152835
20210128152527
20210129152845
20210130154330
20210131152343
20210201153405
20210202153756
20210203153513
20210204150119
20210205151245
20210206150959
20210207151826
20210208153100
20210209151210
20210210152204
20210211153556
20210212150914
20210213150945
20210214151101
20210215151832
20210216150553
20210217150517
20210218145240
20210219144608
20210220150832
20210221151252
20210222145939
20210223144843
20210224145633
20210225150746
20210226144557
20210227145442
20210228150629
20210301145709
20210302150510
20210303081759
20210304150003
20210305150714
20210306150004
20210307144908
20210308150416
20210309150258
20210310151750
20210311152735
20210312144957
20210313151635
20210314150845
20210315152422
20210316145534
20210317152539
20210318151905
20210319151623
20210320152410
20210321150425
20210322150604
20210323150528
20210324150117
20210325145131
20210326152409
20210327145306
20210328134907
20210329135546
20210330135541
20210331140849
20210410142237
20210411070313
20210412142511
20210413140314
20210414140535
20210415064650
20210416135911
20210417141449
20210418140817
20210419135730
20210420140358
20210421140406
20210422135528
20210423140512
20210424140044
20210425140010
20210426142229
20210427082542
20210428141730
20210429140233
20210430140231
20210501140647
20210502140020
20210503140421
20210504142428
20210505140017
20210506140841
20210507141533
20210508135702
20210509135553
20210510140859
20210511142106
20210512142524
20210513135316
20210514142611
20210515135433
20210516141123
20210517140908
20210518142816
20210519135703
20210520135959
20210521141039
20210522135035
20210523141411
20210524135529
20210525141131
20210526135426
20210527141029
20210528141229
20210529140431
20210530140226
20210531140005
20210601140337
20210602140524
20210603134934
20210604135838
20210605140556
20210606135554
20210607134606
20210608135542
20210609140210
20211102143325
20211103145801
20211104144644
20211105144541
20211106144455
20211107145900
20211108140145
20211109152614
20211110153207
20211111152848
20211112150704
20211113150210
20211114154126
20211115152952
20211116153137
20211117145919
20211118150426
20211119142117
20211120150240
20211121145612
20211122144335
20211123150236
20211124145937
20211125153015
20211126153918
20211127154356
20211128154018
20211129151300
20211130150458
20211201152355
20211202153619
20211203154346
20211203202335
20211205152034
20211206150555
20211207151745
20211208150557
20211209152457
20211210151648
20211211150241
20211212143837
20211213131749
20211214151039
20211215145432
20211216145338
20211217150030
20211218145136
20211219150908
20211220150848
20211221151038
20211222150055
20211223151112
20211224153908
20211225145601
20211226145948
20211227151017
20211228155108
20211229151152
20211230151318
20211231150444
20220101150307
20220102152547
20220103151337
20220104153944
20220105152037
20220106145046
20220107145953
20220108145849
20220109152723
20220110151152
20220111150827
20220112145117
20220113150708
20220114144218
20220115150133
20220116144721
20220117145157
20220118144717
20220119145818
20220120075739
20220121140849
20220122145732
20220123150301
20220124142442
20220125145757
20220126150845
20220127150103
20220128151857
20220129144939
20220130151257
20220131150504
20220201145316
20220202145410
20220203145121
20220204145635
20220205142140
20220206141703
20220207142414
20220208144533
20220209150019
20220210142030
20220211143628
20220212151952
20220213152731
20220214150825
20220215152448
20220216151432
20220217145953
20220218150631
20220219150352
20220220154401
20220221150728
20220222144540
20220223145733
20220224144739
20220225150104
20220226145856
20220227150818
20220228145949
20220301145414
20220302145003
20220303144525
20220304152409
20220305144515
20220306144507
20220307144309
20220308142503
20220309143849
20220310150109
20220311145806
20220312145929
20220313152053
20220314151301
20220315152218
20220316145446
20220317151408
20220318145401
20220319145544
20220320145023
20220321142513
20220322144516
20220323150138
20220324145316
20220325144847
20220326145806
20220327140553
20220328135249
20220329135429
20220330142736
20220331140546
20220401141139
20220402140242
20220403140200
20220404141321
20220405142047
20220406143340
20220407140230
20220408122914
20220409141611
20220410141339
20220411140913
20220412135414
20220413133459
20220414132133
20220415074651
20220416135738
20220417135737
20220418140127
20220419141648
20220420134926
20220421140501
20220422140247
20220423142436
20220424142259
20220425134357
20220426122228
20220427141318
20220428142251
20220429140827
20220430133322
20220501125215
20220502142308
20220504140945
20220505140101
20220506143743
20220507140846
20220508140500
20220509140046
20220510135315
20220511134628
20220512125716
20220513140021
20220514141555
20220515140816
20220516141625
20220517141459
20220518140436
20220519123707
20220520131609
20220521140207
20220522140352
20220523135137
20220524134734
20220525135428
20220526140352
20220527135156
20220528133600
20220529135004
20220530140250
20220531135644
20220601135946
20220602135057
20220603135241
20220604135610
20220605120551
20220606124656
20220607135258
20220608140400
20220609135636
20221102150533
20221103143711
20221104143703
20221105133048
20221106133340
20221107144727
20221108145933
20221109144509
20221110134506
20221111131347
20221112145155
20221113150945
20221114145116
20221115150147
20221116150414
20221117144917
20221118145538
20221119144029
20221120144917
20221121151330
20221122145345
20221123145758
20221128150509
20221129144944
20221130145414
20221201144816
20221202145415
20221203065559
20221204143142
20221206144914
20221207145641
20221208144933
20221209145215
20221210150710
20221211151507
20221212151122
20221213151059
20221214150157
20221215145903
20221216145938
20221217145955
20221218150008
20221219145225
20221220143723
20221221143434
20221222150431
20221223152117
20221224144721
20221226144907
20221227150923
20221228145008
20221229150359
20221230135837
20221231140022
20230102145657
20230103150742
20230104142011
20230106145105
20230107145957
20230108080142
20230109150032
20230110145909
20230111143844
20230112142043
20230113144927
20230114144809
20230115150248
20230117151047
20230118150643
20230120150507
20230121145844
20230122151000
20230123152605
20230124151216
20230125151203
20230126144829
20230127145131
20230128150812
20230129151248
20230130150506
20230201155551
20230202145130
20230203145044
20230204143821
20230206145538
20230208145035
20230209145321
20230210145034
20230211145128
20230212145048
20230214143416
20230215143607
20230216144942
20230217144701
20230218145130
20230219145834
20230220142116
20230221143407
20230222150031
20230223145931
20230224145217
20230226151050
20230227153243
20230228145833
20230301153220
20230302151138
20230303145231
20230304145957
20230305134045
20230306144011
20230307152427
20230308150100
20230309150236
20230310151721
20230311151813
20230312152956
20230313144839
20230314091455
20230315144519
20230316151557
20230317144822
20230318145451
20230319142729
20230320144154
20230321142908
20230322145245
20230323151650
20230324145832
20230326141542
20230327140221
20230329141124
20230330142153
20230331140752
20230401140122
20230402140512
20230403135443
20230404140536
20230405130207
20230406135758
20230407140149
20230408135923
20230409134642
20230410132843
20230412141322
20230413141615
20230414140203
20230415135925
20230416141513
20230417140155
20230418132631
20230419135843
20230420140454
20230421140352
20230422134520
20230423141458
20230424135212
20230425140243
20230426141013
20230427140229
20230428141756
20230429140717
20230430142321
20230501141958
20230502142510
20230503132433
20230504130805
20230505141102
20230506134023
20230507134502
20230508134623
20230513135104
20230514135537
20230515135104
20230516134724
20230517135140
20230518140116
20230519135915
20230520140130
20230521140114
20230522141927
20230523135649
20230524135632
20230525135245
20230526140059
20230527132720
20230528133151
20230529135539
20230530135829
20230531140429
20230601134421
20230602135712
20230603131025
20230604132541
20230605141027
20230606135536
20230607134744
20230608134914
20230609133514
20240110144755
20240112150613
20240113150344
20240114150056
20240115152359
20240118153317
20240120150706
20240121145808
20240122150407
20240124150128
20240125150558
20240126150427
20240128145106
20240129145228
20240130150859
20240131151324
20240201150422
20240202145608
20240203145413
20240204145704
20240205150655
20240206145543
20240207150132
20240209150007
20240210152245
20240212150624
20240214150300
20240215144838
20240216145816
20240217150538
20240218145542
20240220151542
20240224150616
20240225150535
20240228154110
20240309092410
20240321144658
20240323143305
20240324141649
20240402135214
20240405135257