20160401134701
20160402132702
20160403125201
20160404120701
20160405134202
20160406134702
20160408115201
20160409132201
20160410132701
20160411133201
20160412150702
20160413140702
20160414062702
20160416121702
20160417121202
20160418124201
20160419130701
20160420133702
20160421130702
20160422130701
20160423131701
20160424123702
20161103131059
20161104143202
20161105144021
20161106123752
20161107133251
20161108133920
20161109150132
20161110143802
20161111142249
20161112144714
20161113130557
20161114145304
20161115150046
20161116144900
20161117134810
20161118145906
20161119131230
20161120130706
20161121142016
20161122151056
20161123141926
20161124133701
20161125134133
20161126135925
20161127134347
20161128145539
20161129134612
20161130135154
20161201132811
20161202132218
20161203144219
20161204143055
20161205134722
20161206132318
20161207134058
20161208143826
20161209142949
20161210134028
20161211130958
20161212132915
20161213134134
20161214144637
20161215134420
20161216130226
20161217133408
20161218122740
20161220133020
20161221133643
20161222132438
20161223132737
20161224140342
20161225135322
20161226130401
20161227144411
20161228144715
20161229132011
20161230130324
20161231145645
20170101145038
20170102120648
20170103124211
20170104150244
20170105135312
20170106140306
20170107132515
20170108122928
20170109134541
20170110141327
20170111145422
20170112145127
20170113144038
20170114135727
20170115140511
20170116150845
20170117140420
20170118132219
20170119145925
20170120125623
20170121150145
20170122140225
20170123133655
20170124133305
20170125140423
20170126140106
20170127143908
20170128144023
20170129144742
20170130131239
20170131132806
20170201134442
20170202150039
20170203151201
20170204141902
20170205141135
20170206135543
20170207135507
20170208151338
20170209145230
20170210143445
20170211143833
20170212143637
20170213132213
20170214140229
20170215150938
20170216141937
20170217142027
20170218151659
20170219141349
20170220150143
20170221140335
20170222125813
20170223142103
20170224145703
20170225143446
20170226150803
20170227141436
20170228125516
20170301142013
20170302145603
20170303153143
20170304135454
20170305142720
20170306150859
20170307152036
20170308144456
20170309145953
20170310145220
20170311144535
20170312160153
20170313150822
20170314144248
20170315145503
20170316131323
20170317145249
20170318141652
20170319141349
20170320133300
20170321134049
20170322145855
20170323143113
20170324145851
20170325144343
20170326125536
20170327130108
20170328134251
20170329130704
20170330133624
20170331133225
20170401132535
20170402121436
20170403132031
20170404125405
20170405131958
20170406135439
20170407134050
20170408125921
20170409125342
20170410123331
20170411125729
20170412130212
20170413135802
20170414133640
20170415135507
20170416133626
20170417124600
20170418125831
20170419141221
20170420134826
20170423125512
20170424131818
20170425143758
20170426140518
20170427134758
20170428141022
20170429134909
20170430141609
20170501142710
20170502135908
20170503133832
20170504131554
20170505123338
20170506134258
20170507130141
20170508134426
20170509134343
20170510132722
20170511132551
20170512130533
20170513124621
20170514124455
20170515124557
20170516141532
20170517134202
20170518135412
20170519131450
20170520133017
20170521133752
20170522133032
20170523130147
20170524131409
20170525133514
20170526132211
20170527125714
20170528133534
20170529122510
20170530133842
20170531130447
20170601131928
20170602133452
20170603132233
20170604121854
20170605122954
20170606134055
20170607133841
20170608134550
20170609132918
20170610120904
20170611125534
20170612115408
20171102123924
20171103142249
20171104135036
20171105131841
20171106131759
20171107105835
20171108143548
20171109130516
20171110145012
20171111143600
20171112125702
20171113134333
20171114134237
20171115141905
20171117115210
20171118132435
20171119130349
20171120142232
20171121142006
20171122102314
20171123140352
20171124134015
20171125150944
20171126144032
20171127140952
20171128131616
20171129141251
20171130150250
20171201153235
20171202145737
20171203143909
20171204140627
20171205150354
20171206144452
20171207143929
20171208150631
20171209151447
20171210134716
20171211145530
20171212140243
20171213143818
20171214140957
20171215150053
20171216143438
20171217142451
20171218150012
20171219141542
20171220131952
20171221141433
20171222135913
20171223145542
20171224145620
20171225155229
20171226145058
20171227140212
20171228140446
20171229145512
20171230140554
20171231140218
20180101145557
20180102140946
20180103151246
20180104151448
20180105145339
20180106144918
20180107150515
20180108144644
20180109085955
20180110151407
20180111141732
20180112145005
20180113142341
20180114141415
20180115143715
20180116134857
20180117140458
20180118145733
20180119141549
20180120150424
20180121145155
20180122151523
20180123142022
20180124150030
20180125152848
20180126150402
20180127140902
20180128142413
20180129143111
20180130144709
20180131141333
20180201143749
20180202143911
20180203141456
20180204145732
20180205150821
20180206143941
20180207151227
20180208143232
20180209145741
20180210135857
20180211142416
20180212150057
20180213150630
20180214142000
20180215151904
20180216144106
20180217145611
20180218144629
20180219142508
20180220151758
20180221150028
20180222144934
20180223150052
20180224142259
20180225141904
20180226150239
20180227142247
20180228140941
20180301125407
20180302133919
20180303150358
20180304150442
20180305143558
20180306150538
20180307150908
20180308140939
20180309153742
20180310141206
20180311141031
20180312150754
20180313150844
20180314145758
20180315144122
20180316142501
20180317150155
20180318150551
20180319143849
20180320135026
20180321141152
20180322141337
20180323145855
20180324143922
20180325132728
20180326134800
20180327131909
20180328130558
20180329133332
20180330133731
20180331140333
20180401140321
20180402133652
20180403131240
20180404132954
20180405133328
20180406133008
20180407132545
20180408124810
20180409133536
20180410140305
20180411140114
20180412134549
20180413130354
20180414144605
20180415141015
20180417135535
20180418140603
20180419130527
20180420125458
20180421135753
20180422134405
20180423131533
20180424130353
20180425135726
20180426125050
20180427135841
20180428130239
20180429133303
20180430133023
20180501130344
20180502131803
20180503132114
20180504125830
20180505124858
20180506132300
20180507125634
20180508134502
20180509132337
20180510135450
20180511130734
20180512124240
20180513135256
20180514134754
20180515131816
20180516115726
20180517123108
20180518130152
20180519133447
20180520130918
20180521121425
20180523121903
20180524125812
20180525125137
20180526133455
20180527131613
20180528134403
20180529130506
20180530131212
20180531144520
20180601130520
20180602135102
20180603124857
20180604133355
20180605130826
20180606133312
20180607134309
20180608132926
20180609131703
20180610124348
20180611132845
20181029141612
20181030141612
20181031144349
20181101142611
20181102145329
20181103134449
20181104140606
20181105141726
20181106150921
20181107143254
20181108141911
20181109140749
20181110143128
20181111142835
20181112140014
20181113135451
20181114131444
20181115142706
20181116142155
20181117141004
20181118140324
20181119135223
20181120131136
20181121140710
20181122153446
20181123150730
20181124143002
20181125140710
20181127152010
20181128151420
20181129153205
20181130141609
20181201140716
20181202140948
20181203151302
20181204145556
20181205150500
20181206140453
20181207141845
20181208150452
20181209145708
20181210151444
20181211145547
20181212144515
20181214140159
20181215150935
20181216141505
20181217143136
20181218145023
20181219150724
20181220150858
20181221150654
20181222150808
20181223144919
20181224145706
20181225144411
20181226141300
20181227141524
20181228150434
20181229145407
20181230143014
20181231142307
20190101142328
20190102143711
20190103143012
20190104140440
20190105145717
20190106143852
20190107140401
20190108143725
20190109145056
20190110144739
20190111150202
20190112143249
20190113141510
20190114150440
20190115145949
20190116145926
20190117150644
20190118142424
20190119135605
20190120142955
20190121150748
20190122141813
20190123143335
20190124150815
20190125144335
20190126150149
20190127144853
20190128142529
20190129150953
20190130092111
20190131154035
20190201145615
20190202141111
20190203142826
20190204150716
20190206143700
20190207150235
20190208145539
20190209151111
20190210141022
20190211144059
20190212144156
20190213141441
20190214141008
20190215144728
20190216150257
20190217135421
20190218142254
20190219150515
20190220144956
20190221145012
20190222145736
20190223150853
20190224143428
20190225143919
20190226144806
20190227150304
20190228150133
20190301143953
20190302145552
20190303144426
20190304144742
20190305145525
20190306145938
20190307150051
20190308144438
20190309150702
20190310151041
20190311145909
20190312150007
20190313151032
20190314150148
20190315150223
20190316150137
20190317150304
20190318150815
20190319143717
20190320143343
20190322150053
20190323144350
20190324144704
20190325145505
20190326144846
20190327145715
20190328145058
20190329145608
20190330145053
20190331131901
20190401134302
20190402135832
20190403133956
20190404141236
20190405140834
20190406135541
20190407135855
20190408140746
20190409134053
20190410140043
20190411134803
20190412135239
20190413132627
20190414131056
20190415135500
20190416141712
20190417131913
20190418140921
20190419140316
20190420135400
20190421133138
20190422132709
20190423140655
20190424141009
20190425133831
20190426133922
20190427131148
20190429140014
20190430131519
20190501140235
20190502140308
20190503121421
20190504134046
20190505134132
20190506140010
20190507123424
20190508131911
20190509130611
20190510132852
20190511131955
20190512130740
20190513133817
20190514130953
20190515123542
20190516134513
20190517132711
20190518131002
20190519125115
20190520134546
20190521132756
20190522124639
20190523125642
20190524123829
20190525133317
20190526115807
20190527131857
20190528131639
20190529133835
20190530123047
20190531133414
20190601122849
20190602124908
20190603131436
20190604133714
20190605130906
20190606135329
20190607121535
20190608133552
20190609133210
20190610134746
20190611125522
20190612130035
20191030140341
20191031144905
20191101135550
20191102133708
20191103133952
20191104143559
20191105140451
20191106140921
20191107134639
20191108140535
20191109145545
20191110150721
20191111142920
20191112141911
20191113142028
20191114142820
20191115143508
20191116141523
20191117140228
20191118145341
20191119145342
20191120144700
20191121140255
20191122140359
20191123144632
20191124141005
20191125144505
20191126144559
20191127143025
20191128135536
20191129135006
20191130150650
20191201145945
20191202140407
20191203133513
20191204144112
20191206140037
20191207145722
20191208142951
20191209144011
20191210151729
20191211140026
20191212150232
20191213144025
20191214141248
20191215133816
20191216150747
20191217145032
20191218141851
20191219144640
20191220143508
20191221144933
20191222140714
20191223144807
20191224143407
20191225150054
20191226134435
20191227144329
20191228145550
20191229140442
20191230143839
20191231144842
20200101144734
20200102145413
20200103150245
20200104140439
20200105135759
20200106144555
20200107144434
20200108135404
20200110145856
20200111145630
20200112143756
20200113142444
20200114144836
20200115133144
20200116131438
20200117150012
20200118150033
20200119144835
20200120142100
20200121132128
20200122150032
20200123150837
20200124145249
20200125142916
20200126143121
20200127150957
20200128143510
20200129150227
20200130150801
20200131150553
20200201150604
20200202145042
20200203145555
20200204144829
20200205142308
20200206141443
20200207150507
20200208150125
20200209145740
20200210143427
20200211141622
20200212143847
20200213144404
20200215143759
20200216144137
20200217145631
20200218150202
20200219150412
20200221152110
20200222145744
20200223145451
20200224142521
20200225151443
20200226135356
20200227150046
20200228150605
20200229150129
20200301144112
20200302142802
20200303150952
20200304150821
20200305150438
20200306142126
20200307150218
20200308151136
20200309145609
20200310145519
20200311150056
20200312150847
20200313145443
20200314150204
20200315144407
20200316144653
20200317144018
20200318140556
20200319132332
20200320145100
20200321145022
20200322140439
20200323150851
20200324142530
20200325145053
20200511141151
20200512133700
20200513131449
20200514134448
20200515121455
20200516122107
20200517115801
20200518141441
20200519135932
20200520141351
20200521132900
20200522135124
20200523143938
20200524141614
20200525125756
20200526122048
20200527140344
20200528133335
20200529111615
20200530112158
20200531121847
20200601140710
20200602124814
20200603140843
20200604112616
20200605122853
20200606144403
20200607141910
20200608131152
20200609143528
20200610142516
20201028143652
20201029131147
20201030154453
20201102150137
20201103145628
20201104145547
20201105135003
20201106124017
20201107150457
20201108150717
20201109150707
20201110142753
20201111144725
20201112133406
20201113142614
20201114150359
20201115150934
20201116142121
20201117133936
20201118150827
20201119145937
20201120150221
20201121150032
20201122145417
20201123135026
20201124134022
20201125145407
20201126145234
20201127142240
20201128135146
20201129131902
20201130151114
20201201151119
20201202140218
20201203135621
20201204140201
20201205143708
20201206133905
20201207145153
20201208143353
20201209150104
20201210144727
20201214145144
20201215150510
20201217142447
20201218140532
20201219150639
20201220151349
20201221145341
20201222142853
20201223145358
20201224151439
20201225143503
20201226150256
20201227151130
20201228151751
20201229145335
20201230152227
20201231135354
20210101145238
20210102144943
20210103144535
20210104145528
20210105142746
20210106145441
20210107150537
20210108150301
20210109143500
20210110134903
20210111144058
20210112150518
20210115152205
20210116144203
20210117143853
20210118144410
20210119151954
20210120151347
20210121150303
20210122151247
20210123145146
20210124144807
20210125150133
20210126135900
20210127145832
20210128142336
20210129144408
20210130144107
20210131141931
20210201144442
20210202145133
20210203144940
20210204140546
20210205145658
20210206151059
20210207144600
20210208145923
20210209141915
20210210150000
20210211080412
20210212152026
20210213151716
20210214152114
20210215143358
20210216143419
20210217151141
20210218150110
20210219150411
20210220145404
20210221144358
20210222143029
20210223132044
20210224142443
20210225151516
20210226145408
20210227141907
20210228143630
20210301144220
20210302145914
20210303150231
20210304150144
20210305151614
20210306133432
20210307124330
20210308151045
20210309151341
20210310141214
20210311144823
20210312152424
20210313150327
20210314150338
20210315145129
20210316150413
20210317143335
20210318130104
20210319150138
20210320150850
20210321145953
20210322145131
20210323142550
20210324151556
20210325150730
20210326150737
20210327143734
20210328134459
20210329121109
20210330134948
20210331135801
20210410140246
20210411135356
20210412134619
20210413122135
20210414141533
20210415135157
20210416134526
20210417135821
20210418124519
20210419124653
20210420122652
20210421140145
20210422140830
20210423133658
20210424140128
20210425135120
20210426141131
20210427141155
20210428135543
20210429132648
20210430123217
20210501140816
20210502141434
20210503113817
20210504120803
20210505135336
20210506141841
20210507135955
20210508141840
20210509142932
20210510114239
20210511132610
20210512141040
20210513125530
20210514134603
20210515131712
20210516122809
20210517140755
20210518134842
20210519135652
20210520120826
20210521121903
20210522140711
20210523134210
20210524120117
20210525141201
20210526140222
20210527134647
20210528125759
20210529140538
20210530133500
20210531130222
20210601113625
20210602124346
20210603141046
20210604135320
20210605134402
20210606121836
20210607141146
20210608135713
20210609134205
20211102134541
20211103165217
20211104131145
20211105141150
20211106142143
20211107150630
20211108133803
20211109140314
20211110151148
20211111150043
20211112150300
20211113141032
20211114130538
20211115135855
20211116144237
20211117141448
20211118133741
20211119134812
20211120150356
20211121142417
20211122133948
20211123144738
20211124144627
20211125140320
20211126145105
20211127145132
20211128144323
20211129135651
20211130142315
20211201133720
20211202135443
20211203142337
20211204143226
20211205150659
20211206145643
20211207145721
20211208152148
20211209151120
20211210144827
20211211143641
20211212141206
20211213145428
20211214151013
20211215150111
20211216143906
20211217141924
20211218150323
20211219145942
20211220145427
20211221135619
20211222142457
20211223145336
20211224144353
20211225145535
20211226145402
20211227145107
20211228150832
20211229140038
20211230150558
20211231145109
20220101150144
20220102143438
20220103142731
20220104141522
20220105131751
20220106150820
20220107150438
20220108144418
20220109134841
20220110150546
20220111144634
20220112143918
20220113145225
20220114144651
20220115150213
20220116144716
20220117145627
20220118142236
20220119145800
20220120150409
20220121142302
20220122144406
20220123144935
20220124141342
20220125145154
20220126150812
20220127150645
20220128145401
20220129140756
20220130143352
20220131145504
20220201144738
20220202145539
20220203125339
20220204150813
20220205150725
20220206152248
20220207144838
20220208142630
20220209132236
20220210152208
20220211151403
20220212150312
20220213150417
20220214142306
20220215142425
20220216151443
20220217150613
20220218150728
20220219141335
20220220142621
20220221150625
20220222150550
20220223152959
20220224145638
20220225150922
20220226145100
20220227144957
20220228134528
20220301142038
20220302144630
20220303152056
20220304150243
20220305150129
20220306143714
20220307142006
20220308135354
20220309142823
20220310144709
20220311150227
20220312140407
20220313135245
20220314150756
20220315150634
20220316141910
20220317140302
20220318144910
20220319145301
20220320150005
20220321145820
20220322144800
20220323143727
20220324135828
20220325133557
20220326145158
20220327134756
20220328132721
20220329131325
20220330135216
20220331140150
20220401140314
20220402131249
20220403124950
20220404135708
20220405134319
20220406140136
20220407133912
20220408132130
20220409141758
20220410135818
20220411140444
20220412140106
20220413130131
20220414122546
20220415135025
20220416134625
20220417134528
20220418121750
20220419141041
20220420140435
20220421141041
20220422135801
20220423135612
20220424135211
20220425131215
20220426135430
20220427135804
20220428135301
20220429134449
20220430131301
20220501120004
20220502133819
20220504131306
20220505125911
20220506135521
20220507134759
20220508132808
20220509130448
20220510123938
20220511133506
20220512134509
20220513134948
20220514131754
20220515130711
20220516135447
20220517141205
20220518135821
20220519134141
20220520130211
20220521123051
20220522133954
20220523134919
20220524135125
20220525135707
20220526133730
20220527132002
20220528132001
20220529133717
20220530135741
20220531134642
20220601134939
20220602135021
20220603135707
20220604134222
20220605130930
20220606135546
20220607130119
20220608135129
20220609135843
20221102141400
20221103143721
20221104150117
20221105142613
20221106143127
20221107145203
20221108145733
20221109150550
20221110143631
20221111143535
20221112140738
20221113143525
20221114150522
20221115150605
20221116145528
20221117154230
20221118150510
20221119144923
20221120150054
20221121145053
20221122145219
20221123145031
20221128142736
20221129145719
20221130143537
20221201145812
20221202144031
20221203142156
20221204144606
20221206145858
20221207145853
20221208145007
20221209150535
20221210150822
20221211150813
20221212145256
20221213144625
20221214151110
20221215150648
20221216145534
20221217145936
20221218144706
20221219150321
20221220150409
20221221145819
20221222150129
20221223151014
20221224150350
20221226145559
20221227145817
20221228145246
20221229150203
20221230150544
20221231144953
20230102145107
20230103150235
20230104145337
20230106153657
20230107151136
20230108150511
20230109145819
20230110150648
20230111150159
20230112151410
20230113145856
20230114150510
20230115145543
20230117145545
20230118150620
20230119144216
20230120143306
20230121150148
20230122150010
20230123150037
20230124150615
20230125150512
20230126145949
20230127145539
20230128145241
20230129144911
20230130144658
20230131145830
20230201145420
20230202145950
20230203143330
20230204144700
20230206145248
20230208125040
20230209142059
20230210145137
20230211145232
20230212143516
20230214150344
20230215144844
20230216142858
20230217150626
20230218144105
20230219145810
20230220144949
20230221143239
20230222145910
20230223145039
20230224145000
20230226145709
20230227144333
20230228145456
20230301145806
20230302145551
20230303145914
20230304143746
20230305145042
20230306145414
20230307145323
20230308145518
20230309145750
20230310150014
20230311145938
20230312144913
20230313151157
20230314151000
20230316145302
20230317145829
20230318150244
20230319150014
20230320150447
20230321150332
20230322144948
20230324145657
20230325144455
20230326140304
20230327140239
20230329140534
20230330140627
20230331134549
20230401140835
20230402134601
20230403135806
20230404140920
20230405135902
20230406131532
20230407135417
20230408135830
20230409140207
20230410135440
20230412134026
20230413135703
20230414135410
20230415140851
20230416140116
20230417140025
20230418135941
20230419140438
20230420135839
20230421134534
20230422135432
20230423135954
20230424135837
20230425135021
20230426134625
20230427132351
20230428140048
20230429140122
20230430140316
20230502140517
20230503131557
20230504132923
20230505115850
20230506133835
20230507134601
20230508134404
20230513134538
20230514134549
20230515135817
20230516135442
20230517130438
20230518124952
20230519134354
20230520135640
20230521135207
20230522133615
20230523123207
20230524135402
20230525135048
20230526135301
20230527130841
20230528130207
20230529131842
20230530134859
20230531132410
20230601134823
20230602141228
20230603132500
20230604135429
20230605134634
20230607134344
20230608124255
20230609135611
20240110150448
20240111150931
20240112145750
20240113145409
20240114145745
20240115150603
20240116151533
20240118150458
20240119150931
20240120151205
20240121152048
20240122143802
20240124145827
20240125151125
20240126145743
20240127142738
20240128140655
20240129150707
20240130150316
20240131150250
20240201145744
20240202150156
20240203150444
20240204144647
20240205145458
20240206145620
20240207144501
20240208150130
20240209145214
20240210150552
20240211140705
20240212145700
20240214150153
20240215144923
20240216145508
20240217145427
20240218145728
20240220135422
20240221150954
20240222145156
20240223145845
20240224145633
20240225145104
20240226150932
20240227150335
20240228150817
20240306144047
20240321144945
20240323144337
20240328093515
20240405135100
20240411134157
20240412135127
20240417135121
20240419135052
20240426134644
20240430134201
20240503134851
20240505135144
20240506132647
20240507133306
20240508135133
20240511133956
20240512134057