20160401131202
20160402134202
20160403135202
20160404134701
20160405134702
20160406134702
20160407133201
20160409134702
20160410131201
20160411140701
20160412140701
20160413134201
20160414135201
20160415131702
20160417132201
20160418135201
20160419140701
20160420134701
20160421134701
20160422132201
20160423133202
20160424134701
20160426090701
20161103134607
20161104140616
20161105151248
20161106130840
20161107143212
20161108140329
20161109142555
20161110144639
20161111145112
20161112141609
20161113143813
20161114144839
20161115140814
20161116144941
20161117140538
20161118143838
20161119143109
20161120150927
20161121141306
20161122142403
20161123144202
20161124152405
20161125144956
20161126144354
20161127143859
20161128143551
20161129145519
20161130145656
20161201142251
20161202142655
20161203144436
20161204143630
20161205145227
20161206142820
20161207151207
20161208142831
20161209145444
20161210145914
20161211145221
20161212143835
20161213144731
20161214151410
20161215143349
20161216142059
20161217142424
20161218144259
20161220142709
20161221144431
20161222151954
20161223143134
20161224144002
20161225144621
20161226145052
20161227141106
20161228144325
20161229151956
20161230142904
20161231142506
20170101144651
20170102142746
20170103135554
20170104151723
20170105141224
20170106142853
20170107145659
20170108151255
20170109142835
20170110142203
20170111151146
20170112144645
20170113143302
20170114145138
20170115145218
20170116142338
20170117142333
20170118144235
20170119144037
20170120143356
20170121145557
20170122140821
20170123144810
20170124141856
20170125150208
20170126142649
20170127141014
20170128143219
20170129144912
20170130144430
20170131143057
20170201150632
20170202150706
20170203142653
20170204142817
20170205144518
20170206144255
20170207144545
20170208142740
20170209142314
20170210143518
20170211142911
20170212144857
20170213142115
20170214144321
20170215143743
20170216142236
20170217144539
20170218144101
20170219141919
20170220141030
20170221134715
20170222141457
20170223142731
20170224145536
20170225143428
20170226144714
20170227140545
20170228142205
20170301144625
20170302150814
20170303144450
20170304144800
20170305141630
20170306143148
20170307135803
20170308144056
20170309142445
20170310141605
20170311135246
20170312141914
20170313134724
20170314142150
20170315141901
20170316142659
20170317142908
20170318151605
20170319140346
20170320143407
20170321141951
20170322143049
20170323143001
20170324145428
20170325144218
20170326133133
20170327133658
20170328134521
20170329130835
20170330130346
20170331132722
20170401134025
20170402134158
20170403125531
20170404134353
20170405133701
20170406134653
20170407133725
20170408125917
20170409132015
20170410133342
20170411133015
20170412134609
20170413133105
20170414133015
20170415134335
20170416134003
20170417131201
20170418130317
20170419134606
20170420133520
20170423131918
20170424131942
20170425131927
20170426131912
20170427132552
20170428133210
20170429140122
20170430131941
20170501132222
20170502133028
20170503134555
20170504134654
20170505132000
20170506122255
20170507123909
20170508135451
20170509133108
20170510132601
20170511132947
20170512134515
20170513132005
20170514140448
20170515134423
20170516155845
20170517133742
20170518134407
20170519131432
20170520134658
20170521133824
20170522130339
20170523132919
20170524125542
20170525135312
20170526132205
20170527124358
20170528120240
20170529131419
20170530125742
20170531132319
20170601125539
20170602135129
20170603134033
20170604132911
20170605141403
20170606134404
20170607134445
20170608150821
20170609125512
20170610133222
20170611134817
20170612124641
20171102145310
20171103145145
20171104135523
20171105142735
20171106144702
20171107145007
20171108151749
20171109145149
20171110150319
20171111151230
20171112145650
20171113145930
20171114150937
20171115145754
20171116144541
20171117145806
20171118144643
20171119145110
20171120145301
20171121144750
20171122145243
20171123144825
20171124150233
20171125150540
20171126145555
20171127150741
20171128145553
20171129144914
20171130150034
20171201145923
20171202142656
20171203152202
20171204145016
20171205150718
20171206150427
20171207150209
20171208151030
20171209150116
20171210143748
20171211150041
20171212145117
20171213144107
20171214150403
20171215144611
20171216145715
20171217145416
20171218144846
20171219152718
20171220145049
20171221145526
20171222144345
20171223144751
20171224152501
20171225145742
20171226143942
20171227141641
20171228140022
20171229142735
20171230144637
20171231145212
20180101144642
20180102145228
20180103140713
20180104143715
20180105145135
20180106141647
20180107145733
20180108150902
20180109142316
20180110150935
20180111135257
20180112143836
20180113145613
20180114151344
20180115145032
20180116144808
20180117151255
20180118143439
20180119143057
20180120145841
20180121144703
20180122143518
20180123145443
20180124150555
20180125142119
20180126144227
20180127144531
20180128145158
20180129144543
20180130142538
20180131145655
20180201143503
20180202141737
20180203145657
20180204150745
20180205142342
20180206144450
20180207144338
20180208145403
20180209144908
20180210144643
20180211145810
20180212144615
20180213150807
20180214142915
20180215142703
20180216143236
20180217145525
20180218145229
20180219144738
20180220144624
20180221150302
20180222143509
20180223142945
20180224142816
20180225143656
20180226145148
20180227144442
20180228145049
20180301150258
20180302143243
20180303144345
20180304144602
20180305144158
20180306143032
20180307145244
20180308144801
20180309145954
20180310142556
20180311150241
20180312144932
20180313145311
20180314144546
20180315144207
20180316150108
20180317143417
20180318143311
20180319144606
20180320145529
20180321144731
20180322143856
20180323144507
20180324145544
20180325134702
20180326134828
20180327135906
20180328134249
20180329134834
20180330134744
20180331135435
20180401133733
20180402134657
20180403134608
20180404134400
20180405133816
20180406134827
20180407132733
20180408133653
20180409132833
20180410134704
20180411133025
20180412134714
20180413135123
20180414133445
20180415133440
20180417135817
20180418135308
20180419133213
20180420132917
20180421133751
20180422135418
20180423135435
20180424134850
20180425135029
20180426133411
20180427135306
20180428135555
20180429135830
20180430134820
20180501134334
20180502140822
20180503134708
20180504130856
20180505141647
20180506135211
20180507134749
20180508141007
20180509135902
20180510135723
20180511140444
20180512141843
20180513135046
20180514135830
20180515134552
20180516135300
20180517135827
20180518135821
20180519135750
20180520135258
20180521141558
20180522131644
20180523135952
20180524134706
20180525135503
20180526135548
20180527135241
20180528134339
20180529140627
20180530140801
20180531135754
20180601133353
20180602125459
20180603124719
20180604133602
20180605140627
20180606140618
20180608131223
20180609133848
20180610124951
20180611131858
20181029145912
20181030144708
20181031130727
20181101133414
20181102144814
20181103144641
20181104143044
20181105140035
20181106144930
20181107144642
20181108145905
20181109144601
20181110144220
20181111144948
20181112141353
20181113140732
20181114145648
20181115144508
20181116144545
20181117144952
20181118151528
20181119145158
20181120150148
20181121144940
20181122143319
20181123142737
20181124144846
20181125145102
20181127155809
20181128150125
20181129150150
20181130150042
20181201135133
20181202134922
20181203141510
20181204144035
20181205145736
20181206145649
20181207145036
20181208150112
20181209145924
20181210145454
20181211144605
20181212145008
20181213145217
20181214151905
20181215142858
20181216143047
20181217145902
20181218150552
20181219143737
20181220145803
20181221143436
20181222150028
20181223150058
20181224144855
20181225144805
20181226142757
20181227151600
20181228151844
20181229143724
20181230143506
20181231141447
20190101150201
20190102144759
20190103143343
20190104142830
20190105143846
20190106142755
20190107145536
20190108144936
20190109143747
20190110142607
20190111150057
20190112143656
20190113142954
20190114145354
20190115145336
20190116142235
20190117142914
20190118145334
20190119145629
20190120144854
20190121152702
20190122143404
20190123141036
20190124145623
20190125144537
20190126144445
20190127145040
20190128143207
20190129144246
20190130151826
20190131142101
20190201150404
20190202145236
20190203150806
20190204151701
20190205144602
20190206145245
20190207143617
20190208143813
20190209143729
20190210145544
20190211144146
20190212145121
20190213144300
20190214144614
20190215144452
20190216145428
20190217143416
20190218141808
20190219142754
20190220150824
20190221145600
20190222145444
20190223143230
20190224142740
20190225144528
20190226142802
20190227143353
20190228141220
20190301152549
20190302143759
20190303145045
20190304144659
20190305145606
20190306145037
20190307150200
20190308145920
20190309144809
20190310144327
20190311142921
20190312144731
20190313145545
20190314142400
20190315150523
20190316145757
20190317145226
20190318145459
20190319145632
20190320142807
20190322143642
20190323143017
20190324144129
20190325145321
20190326145721
20190327144456
20190328151852
20190329144537
20190330142838
20190331132433
20190401133837
20190402135951
20190403133559
20190404140727
20190405135159
20190406135153
20190407134843
20190408133413
20190409133109
20190410140138
20190411135140
20190412134724
20190413134822
20190414135949
20190415132834
20190416134914
20190417134648
20190418132620
20190419134933
20190420140602
20190421140129
20190422135408
20190423135117
20190424133848
20190425133331
20190426135410
20190427140435
20190429131456
20190430135608
20190501131254
20190502134317
20190503141430
20190504133808
20190505134218
20190506135436
20190507134557
20190508134436
20190509131654
20190510134415
20190511140050
20190512134547
20190513135703
20190514135740
20190515135016
20190516124905
20190517131737
20190518140552
20190519134512
20190520133113
20190521143727
20190522135734
20190523130226
20190524140118
20190525140027
20190526132141
20190527125113
20190528135116
20190529135209
20190530135404
20190531130947
20190601131117
20190602122958
20190603135816
20190604135859
20190605123552
20190606123332
20190607134457
20190608134617
20190609141254
20190610125714
20190611135312
20191030153237
20191031142648
20191101144515
20191102145846
20191103144901
20191104150033
20191105145537
20191106154621
20191107145916
20191108145255
20191109145020
20191110145459
20191111143930
20191112151201
20191113145522
20191114145943
20191115144531
20191116135923
20191117143211
20191118150520
20191119142620
20191120150103
20191121144620
20191122145459
20191123144940
20191124145136
20191125145417
20191126150223
20191127145854
20191128150447
20191129145732
20191130150023
20191201145033
20191202144620
20191203145620
20191204143844
20191205145123
20191206145406
20191207145412
20191208144841
20191209145243
20191210145941
20191211144634
20191212150928
20191213145415
20191214144644
20191215150230
20191216150726
20191217145840
20191218150926
20191219144420
20191220142638
20191221145413
20191223144932
20191224151522
20191225142856
20191226145350
20191227145609
20191228142306
20191229145050
20191230143048
20191231150002
20200101144931
20200102142449
20200103144015
20200104143500
20200105144534
20200106142238
20200107141429
20200108145040
20200109145828
20200110145634
20200111143801
20200112143816
20200113142455
20200114145018
20200115142740
20200116144033
20200117150211
20200118144644
20200119145907
20200120145733
20200121142954
20200122142539
20200123145802
20200124150346
20200125142719
20200126143037
20200127145250
20200128145019
20200129143309
20200130151259
20200131145318
20200201142932
20200202142518
20200203143151
20200204144847
20200205144916
20200206145335
20200207145042
20200208141432
20200209145342
20200210145443
20200211144328
20200212142746
20200213143625
20200215151351
20200216150947
20200217145623
20200218150134
20200219150424
20200220143338
20200221145814
20200222144730
20200223143030
20200224142536
20200225144432
20200226145450
20200227144308
20200228151250
20200229143045
20200301145040
20200302144413
20200303143231
20200304143628
20200305145341
20200306151313
20200307142947
20200308143219
20200309144853
20200310143143
20200311142726
20200312143012
20200313144517
20200314145445
20200315145635
20200316145338
20200317145128
20201102150053
20201103143826
20201104134619
20201105142407
20201106144721
20201107145559
20201108133909
20201109140502
20201110141529
20201111134504
20201112141529
20201113133558
20201114131507
20201115152053
20201116141701
20201117140053
20201118135302
20201119135900
20201120142520
20201121144458
20201122142555
20201123143151
20201124141853
20201125135602
20201126143331
20201127140603
20201128144136
20201129145521
20201130143330
20201201140234
20201202135527
20201203150556
20201204142417
20201205143942
20201206144545
20201207144626
20201208144042
20201209135738
20201210141259
20201214151008
20201215144541
20201217140352
20201218150032
20201219145023
20201220144228
20201221150106
20201222151202
20201223150621
20201224143329
20201225143036
20201226145808
20201227153324
20201228142852
20201229143114
20201230143501
20201231144828
20210101150731
20210102145058
20210103142021
20210104143711
20210105143524
20210106151606
20210107145106
20210108145142
20210109142819
20210110143045
20210111143254
20210112150212
20210115145213
20210116143128
20210117142900
20210118150728
20210119153929
20210120145445
20210121150050
20210122145559
20210123142935
20210124150326
20210125151029
20210126143957
20210127145515
20210128144836
20210129145553
20210130142712
20210131145853
20210201144456
20210202142919
20210203145446
20210204141229
20210205144656
20210206145141
20210207150548
20210208145231
20210209145539
20210210141433
20210211144854
20210212145437
20210213141110
20210214141814
20210215144739
20210216143222
20210217144417
20210218141852
20210219145616
20210220144919
20210221145547
20210222143625
20210223143428
20210224145834
20210225143531
20210226145812
20210227144447
20210228141809
20210301141001
20210302143204
20210303144343
20210304144334
20210305140758
20210306144036
20210307143728
20210308145758
20210309145403
20210310150307
20210311143850
20210312141619
20210313145424
20210314145300
20210315145335
20210316145103
20210317143121
20210318144129
20210319141800
20210320141313
20210321145544
20210322144135
20210323144508
20210324144353
20210325144612
20210326150013
20210327144156
20210328134637
20210329134805
20210330133734
20210331134342
20210410135455
20210411135411
20210412134856
20210413134522
20210414135232
20210415135745
20210416140514
20210417142033
20210418135507
20210419134957
20210420133346
20210421133353
20210422135659
20210423135751
20210424135416
20210425141042
20210426135041
20210427135042
20210428133501
20210429133412
20210430134844
20210501135328
20210502141312
20210503135847
20210504133813
20210505135521
20210506140117
20210507135403
20210508135606
20210509133453
20210510135336
20210511134959
20210512135701
20210513130814
20210514135229
20210515135535
20210516142639
20210517135553
20210518135206
20210519135202
20210520141337
20210521134610
20210522134415
20210523135613
20210524135734
20210525135006
20210526135828
20210527135726
20210528143207
20210529134120
20210530135532
20210531140041
20210601135000
20210602135250
20210603141906
20210604135013
20210605133440
20210606135213
20210607135446
20210608135055
20210609131123
20210610132228
20211102151038
20211103143812
20211104145725
20211105141542
20211106143137
20211107143007
20211108150225
20211109151525
20211110145319
20211111141517
20211112154328
20211113143955
20211114150746
20211115151525
20211116143720
20211117145942
20211118150803
20211119145323
20211120145651
20211121144101
20211122145720
20211123145154
20211124142631
20211125142919
20211126142538
20211127145311
20211128144804
20211129145539
20211130145325
20211201142802
20211202150305
20211203145625
20211204144747
20211205145109
20211206151408
20211207143146
20211208143254
20211209144743
20211210150227
20211211145150
20211212150712
20211213144325
20211214145845
20211215150354
20211216143825
20211217144439
20211218150249
20211219144320
20211220143219
20211221145048
20211222141233
20211223144504
20211224151120
20211225144318
20211226143122
20211227144319
20211228144120
20211229150309
20211230144745
20211231144754
20220101150235
20220102144539
20220103145058
20220104145037
20220105150213
20220106144752
20220107144746
20220108150628
20220109145747
20220110145535
20220111145541
20220112150603
20220113143813
20220114145645
20220115142548
20220116151301
20220117145610
20220118145532
20220119145412
20220120150417
20220121142058
20220122143223
20220123141834
20220124143149
20220125145614
20220126144548
20220127142551
20220128144607
20220129144345
20220130145105
20220131144326
20220201142749
20220202142536
20220203145258
20220204144423
20220205145904
20220206151401
20220207142418
20220208144906
20220209150007
20220210142423
20220211144350
20220212144644
20220213144906
20220214150434
20220215142304
20220216144847
20220217144344
20220218145241
20220219144105
20220220145227
20220221150458
20220222150024
20220223140931
20220224142623
20220225145533
20220226145617
20220227143606
20220228144021
20220301144616
20220302145239
20220303150336
20220304150337
20220305144238
20220306150526
20220307150347
20220308150028
20220309144210
20220310142820
20220311142609
20220312145249
20220313145300
20220314145603
20220315151656
20220316150449
20220317145818
20220318144038
20220319144433
20220320144639
20220321150620
20220322142801
20220323142623
20220324135943
20220325150209
20220326144941
20220327134556
20220328140935
20220329135809
20220330135228
20220331133835
20220401140000
20220402133209
20220403140443
20220404134644
20220405134910
20220406140827
20220407133730
20220408133802
20220409133602
20220410132559
20220411135431
20220412132303
20220413132417
20220414134646
20220415133529
20220416135056
20220417133144
20220418134635
20220419141419
20220420132314
20220421132815
20220422135310
20220423132754
20220424131911
20220425135822
20220426135617
20220427135646
20220428133937
20220429135707
20220430133100
20220501133206
20220502135635
20220504135434
20220505132912
20220506140812
20220507133326
20220508134708
20220509135427
20220510133801
20220511135910
20220512131529
20220513130055
20220514135423
20220515135254
20220516134034
20220517132629
20220518124056
20220519135321
20220520135937
20220521132056
20220522133629
20220523134317
20220524135703
20220525133054
20220526134911
20220527134131
20220528123623
20220529133329
20220530131906
20220531131842
20220601124537
20220602123623
20220603132157
20220604135829
20220605135311
20220606135348
20220607134513
20220608134050
20220609134228
20221102142639
20221103150541
20221104150336
20221105150321
20221106142755
20221107145649
20221108145639
20221109135604
20221110141405
20221111143044
20221112143939
20221113144629
20221114144155
20221115144503
20221116142428
20221117161802
20221118145337
20221119152438
20221120152353
20221121150853
20221122145622
20221123145321
20221128144441
20221129150727
20221130144555
20221201144752
20221202141853
20221203144614
20221204145513
20221206151351
20221207142515
20221208144704
20221209145236
20221210143721
20221211143911
20221212151725
20221213145244
20221214145728
20221215145514
20221216141837
20221217145355
20221218141623
20221219054611
20221220144927
20221221142747
20221222155529
20221223143854
20221224144359
20221226150022
20221227145916
20221228141941
20221229144436
20221230143942
20221231144437
20230102143516
20230103140356
20230104144816
20230106144242
20230107143446
20230108144047
20230109145032
20230110144638
20230111144545
20230112145127
20230113144938
20230114150022
20230115150156
20230117144447
20230118145518
20230119150308
20230120150103
20230121145112
20230122145215
20230123144410
20230124145612
20230125150215
20230126150032
20230127145824
20230128144224
20230129145623
20230130144034
20230131144903
20230201150134
20230202145740
20230203150342
20230204142819
20230206150848
20230207144828
20230208145329
20230209143148
20230210145219
20230211144521
20230212145109
20230214143424
20230215145243
20230216142302
20230217150419
20230218144909
20230219144557
20230220144254
20230221134911
20230222144912
20230223144837
20230224145906
20230226144852
20230227144439
20230228142028
20230301145001
20230302145836
20230303145841
20230304144032
20230305144048
20230306142739
20230307141200
20230308145010
20230309144937
20230310144838
20230311144443
20230312142259
20230313144440
20230314150819
20230315143045
20230316144109
20230317144808
20230318145854
20230319144147
20230320145019
20230321142232
20230322143247
20230323145618
20230324145206
20230325151107
20230326140122
20230328133710
20230329144211
20230330134043
20230331134845
20230401134916
20230402135227
20230403134038
20230404125211
20230405135400
20230406134418
20230407130805
20230408135425
20230409140515
20230410130638
20230412134707
20230413134433
20230414140503
20230415134050
20230416133003
20230417134552
20230418134109
20230419134803
20230420133915
20230421132634
20230422134218
20230423134603
20230424140732
20230425135428
20230426130823
20230427131053
20230428141022
20230429134626
20230430135344
20230501134019
20230502133816
20230503124257
20230504134705
20230505135013
20230506132739
20230507132857
20230508135049
20230513135436
20230514140810
20230515135324
20230516134845
20230517132826
20230518133946
20230519133617
20230520134655
20230521134139
20230522133250
20230523131244
20230524134001
20230525140439
20230526123614
20230527133925
20230528134313
20230529133527
20230530124521
20230531130859
20230601131228
20230602134147
20230603130043
20230604124700
20230605141302
20230606123222
20230607123242
20230608124258
20230609123731
20240110145623
20240111143846
20240112143735
20240115144551
20240118144204
20240119142739
20240120141935
20240121140127
20240122144009
20240125142943
20240126144901
20240127142757
20240128144405
20240129150207
20240130143834
20240131143820
20240201140924
20240202145648
20240203145451
20240204143413
20240205144026
20240206142612
20240208142218
20240209142920
20240214145715
20240215150431
20240216141621
20240217150620
20240218144943
20240220142213
20240221143709
20240222125525
20240223151218
20240224144553
20240225143623
20240226143943
20240227144130
20240304144228
20240312144728
20240313144231
20240313162244
20240316143830
20240317144848
20240318143844
20240319140933
20240322144947
20240323143331
20240324142652
20240326144926
20240327142316
20240329165630
20240402125951
20240403133931
20240405133826
20240407131829
20240410134225
20240411131311
20240412134557
20240413134633
20240414132147
20240416134031
20240417133746
20240430133711
20240502135016
20240503134626
20240504133008
20240507134245
20240508135247
20240509134749
20240513134624